{
  "activeViewId" : "2873e9d3-d09c-4355-9f6a-1729d8d972bd",
  "appPageId" : "e4f43b6d-c6c5-4237-8a9a-154f462cb4b2",
  "configurationTags" : [ "allow-in-static-site" ],
  "id" : "323823c2-1a77-442a-9151-57423058ecb7",
  "label" : "Service Not Available",
  "routeType" : "service-not-available",
  "type" : "route",
  "urlPrefix" : "service-not-available"
}