{
  "appPageId" : "26f3a209-dc55-4264-ad2b-8c6fd9290193",
  "componentName" : "siteforce:sldsOneColLayout",
  "id" : "2d2dc253-87ee-4771-9e7f-26250244a582",
  "label" : "Account Management",
  "regions" : [ {
    "id" : "32fd4e7c-5c77-4a29-a62f-010b3fdbb4d6",
    "regionName" : "header",
    "type" : "region"
  }, {
    "components" : [ {
      "componentAttributes" : {
        "tabsetConfig" : {
          "UUID" : "0e0c2cce-4261-460d-a697-44a411b17757",
          "activeTab" : "tab1",
          "tabs" : [ {
            "UUID" : "0c8bad4d-2f4e-4e2d-b06c-15f0838be394",
            "allowGuestUser" : false,
            "locked" : false,
            "seedComponents" : [ {
              "attributes" : {
                "customTitle" : "Members",
                "parentRecordId" : "{!CurrentUser.accountId}",
                "relatedListName" : "Users",
                "showBreadCrumbs" : "false",
                "showCustomTitle" : "true",
                "showManualRefreshButton" : "false",
                "showRowNumbers" : "false"
              },
              "fqn" : "forceCommunity:relatedList"
            } ],
            "tabKey" : "tab1",
            "tabName" : "Members"
          }, {
            "UUID" : "298157da-9034-4b30-8397-9cd2c2e10611",
            "allowGuestUser" : false,
            "locked" : false,
            "seedComponents" : [ {
              "attributes" : {
                "recordId" : "{!CurrentUser.accountId}"
              },
              "fqn" : "forceCommunity:accountBrandRecord"
            } ],
            "tabKey" : "tab2",
            "tabName" : "Branding"
          } ],
          "useOverflowMenu" : false
        }
      },
      "componentName" : "forceCommunity:tabset",
      "id" : "0e0c2cce-4261-460d-a697-44a411b17757",
      "regions" : [ {
        "components" : [ {
          "componentAttributes" : {
            "customTitle" : "Members",
            "parentRecordId" : "{!CurrentUser.accountId}",
            "relatedListName" : "Users",
            "showBreadCrumbs" : false,
            "showCustomTitle" : true,
            "showManualRefreshButton" : false,
            "showRowNumbers" : false
          },
          "componentName" : "forceCommunity:relatedList",
          "id" : "885388b4-a2b3-42f4-8267-0e2af4dc1d40",
          "renditionMap" : { },
          "type" : "component"
        } ],
        "id" : "0c8bad4d-2f4e-4e2d-b06c-15f0838be394",
        "regionLabel" : "Members",
        "regionName" : "tab1",
        "renditionMap" : { },
        "type" : "region"
      }, {
        "components" : [ {
          "componentAttributes" : {
            "recordId" : "{!CurrentUser.accountId}"
          },
          "componentName" : "forceCommunity:accountBrandRecord",
          "id" : "6dcf5184-eacb-4314-9850-c3a7a50b394e",
          "renditionMap" : { },
          "type" : "component"
        } ],
        "id" : "298157da-9034-4b30-8397-9cd2c2e10611",
        "regionLabel" : "Branding",
        "regionName" : "tab2",
        "renditionMap" : { },
        "type" : "region"
      } ],
      "renderPriority" : "NEUTRAL",
      "renditionMap" : { },
      "type" : "component"
    } ],
    "id" : "f7276d2f-f808-4b6c-b612-4d52dd5f89e1",
    "regionName" : "content",
    "type" : "region"
  }, {
    "id" : "5a341397-2ad7-439c-b17d-db018295e9f3",
    "regionName" : "footer",
    "type" : "region"
  }, {
    "components" : [ {
      "componentAttributes" : {
        "customHeadTags" : "",
        "description" : "",
        "title" : "Account Management"
      },
      "componentName" : "forceCommunity:seoAssistant",
      "id" : "a7ce17d3-1889-4eed-9db0-b1c4232914ee",
      "renditionMap" : { },
      "type" : "component"
    } ],
    "id" : "cd261fde-c186-4f68-ac87-b2db89cf6191",
    "regionName" : "sfdcHiddenRegion",
    "type" : "region"
  } ],
  "themeLayoutType" : "Inner",
  "type" : "view",
  "viewType" : "account-management"
}