{
  "appPageId" : "26f3a209-dc55-4264-ad2b-8c6fd9290193",
  "componentName" : "siteforce:sldsOneColLayout",
  "id" : "fa48b038-a0e6-48ae-9480-af824206a06a",
  "label" : "Case Related List",
  "regions" : [ {
    "id" : "828d87d2-41f4-456f-bdae-2d37660a35dc",
    "regionName" : "header",
    "type" : "region"
  }, {
    "components" : [ {
      "componentAttributes" : {
        "customTitle" : "",
        "parentRecordId" : "{!recordId}",
        "relatedListName" : "{!relationshipApiName}",
        "showBreadCrumbs" : true,
        "showCustomTitle" : false,
        "showManualRefreshButton" : true,
        "showRowNumbers" : true
      },
      "componentName" : "forceCommunity:relatedList",
      "id" : "27a1a867-570f-43f6-8f7a-e11bcf7edff9",
      "renderPriority" : "NEUTRAL",
      "renditionMap" : { },
      "type" : "component"
    } ],
    "id" : "0c84e0b1-f4a9-4fc4-a68d-46ab017a98a3",
    "regionName" : "content",
    "type" : "region"
  }, {
    "id" : "6fac4bff-d1a9-4014-84cd-061cdd30990c",
    "regionName" : "footer",
    "type" : "region"
  } ],
  "themeLayoutType" : "Inner",
  "type" : "view",
  "viewType" : "relatedlist-500"
}