{
  "appPageId" : "26f3a209-dc55-4264-ad2b-8c6fd9290193",
  "componentName" : "siteforce:sldsOneColLayout",
  "id" : "cdeafe1f-a78b-48fa-9297-c27d786ac2c5",
  "label" : "Feed Detail",
  "regions" : [ {
    "id" : "1cab0d32-62c7-411b-a95b-f094dd855919",
    "regionName" : "header",
    "type" : "region"
  }, {
    "components" : [ {
      "componentAttributes" : {
        "id" : "{!recordId}"
      },
      "componentName" : "forceCommunity:feedItemDetail",
      "id" : "bf27b81e-d578-418d-a268-bcde3c6b663e",
      "renderPriority" : "NEUTRAL",
      "renditionMap" : { },
      "type" : "component"
    } ],
    "id" : "5b7aee05-4586-4804-9391-40aa7c1b1faa",
    "regionName" : "content",
    "type" : "region"
  }, {
    "id" : "46bffb12-c759-42b4-91e9-7ddcfca5ea05",
    "regionName" : "footer",
    "type" : "region"
  } ],
  "themeLayoutType" : "Inner",
  "type" : "view",
  "viewType" : "feeditem-generic"
}