{
  "appPageId" : "26f3a209-dc55-4264-ad2b-8c6fd9290193",
  "componentName" : "siteforce:sldsOneColLayout",
  "id" : "a8c4fa2e-44a9-402b-81d2-44bd217fba76",
  "label" : "Quip Docs Related List",
  "regions" : [ {
    "id" : "8f5c48c7-3ef5-4241-8f1d-3d8a7db517f9",
    "regionName" : "header",
    "type" : "region"
  }, {
    "components" : [ {
      "componentAttributes" : {
        "parentRecordId" : "{!recordId}"
      },
      "componentName" : "forceCommunity:relatedQuipItemsView",
      "id" : "e581170e-f45c-4867-a2c0-0ddf8b8d7b22",
      "renderPriority" : "NEUTRAL",
      "renditionMap" : { },
      "type" : "component"
    } ],
    "id" : "cbb3d163-32e2-46d0-8a26-09820ca232f8",
    "regionName" : "content",
    "type" : "region"
  }, {
    "id" : "fbf6a9b5-4854-4f7a-848f-89adf743ea6a",
    "regionName" : "footer",
    "type" : "region"
  } ],
  "themeLayoutType" : "Inner",
  "type" : "view",
  "viewType" : "extrelated-quip"
}