{
  "appPageId" : "26f3a209-dc55-4264-ad2b-8c6fd9290193",
  "componentName" : "siteforce:sldsOneColLayout",
  "id" : "8b94864f-f35a-4c0e-9edb-35d587da5b71",
  "label" : "Service Not Available",
  "regions" : [ {
    "components" : [ {
      "componentAttributes" : {
        "richTextValue" : "<div style='display: flex; align-items: center; flex-direction: column; margin: 60px 25px 40px 25px;'><div style='background: url(/sfsites/assets/Images/serviceNotAvailable/serviceNotAvailable.svg) center no-repeat; background-size: contain; height: 331px; width: 100%; max-width: 538px;'></div></div><div style='margin: 0 25px; text-align: center;'><p><b style='font-size: 3.4em'>Looks like the site is temporarily unavailable</b></p><br/><p><span style='font-size: 2em;'>Please try again in a bit.</span></p></div>"
      },
      "componentName" : "forceCommunity:htmlBlock",
      "id" : "9ace88ba-6df2-495a-931c-9a62b1d821b8",
      "renderPriority" : "NEUTRAL",
      "renditionMap" : { },
      "type" : "component"
    } ],
    "id" : "0a11561a-8504-4b05-a8ce-c47467390232",
    "regionName" : "content",
    "type" : "region"
  } ],
  "themeLayoutType" : "ServiceNotAvailable",
  "type" : "view",
  "viewType" : "service-not-available"
}