{
  "appPageId" : "26f3a209-dc55-4264-ad2b-8c6fd9290193",
  "componentName" : "siteforce:sldsOneColLayout",
  "id" : "2f1c9b18-694e-4c3a-8fae-dc5db1b868ac",
  "label" : "User Profile",
  "regions" : [ {
    "id" : "cb477c23-2e73-40bb-b0db-a916e0bdd222",
    "regionName" : "header",
    "type" : "region"
  }, {
    "components" : [ {
      "componentAttributes" : {
        "caseCreateLabel" : "Create Case",
        "caseFilterName" : "AllOpenCases",
        "caseHeaderLabel" : "My Cases",
        "casesTabLabel" : "Cases",
        "detailsTabLabel" : "Details",
        "feedTabLabel" : "Feed",
        "knowledgeableAboutTitle" : "Knows About",
        "maxTopics" : 5,
        "recognitionbuttonLabel" : "Give",
        "relatedTabLabel" : "Related",
        "showAllUpdates" : false,
        "showBadges" : true,
        "showFullPhotoAsCircle" : true,
        "showKnowledgeableAbout" : true,
        "showRelatedList" : true,
        "showReputationInInfluenceCard" : false,
        "showStats" : true,
        "userBadgesTitle" : "Recognition Badges",
        "userId" : "{!recordId}",
        "userStatsTitle" : "Influence"
      },
      "componentName" : "forceCommunity:userRecordHome",
      "id" : "1422b20a-f355-46ca-9b35-d32721e027dc",
      "renderPriority" : "NEUTRAL",
      "renditionMap" : { },
      "type" : "component"
    } ],
    "id" : "f00de321-b511-4104-a0ed-2db35b089c6e",
    "regionName" : "content",
    "type" : "region"
  }, {
    "id" : "79bde1ce-fd9b-42b8-a9af-c051b4497501",
    "regionName" : "footer",
    "type" : "region"
  } ],
  "themeLayoutType" : "Inner",
  "type" : "view",
  "viewType" : "detail-005"
}