{
  "appPageId" : "26f3a209-dc55-4264-ad2b-8c6fd9290193",
  "componentName" : "siteforce:sldsOneColLayout",
  "id" : "fcffa6f5-1f50-45df-8169-61b60eb29a9b",
  "label" : "User List",
  "regions" : [ {
    "id" : "50ec1504-cb67-4bd7-95f0-9c8ef5d75db5",
    "regionName" : "header",
    "type" : "region"
  }, {
    "id" : "e2c0f62a-0da6-429e-b59a-7bda69704aeb",
    "regionName" : "content",
    "type" : "region"
  }, {
    "id" : "1476dd7a-5212-4d10-b041-de22d051559b",
    "regionName" : "footer",
    "type" : "region"
  } ],
  "themeLayoutType" : "Inner",
  "type" : "view",
  "viewType" : "list-005"
}