{
  "appPageId" : "26f3a209-dc55-4264-ad2b-8c6fd9290193",
  "componentName" : "siteforce:sldsOneColLayout",
  "id" : "865716e5-0790-424e-a8b4-08e32c0caf38",
  "label" : "User Related List",
  "regions" : [ {
    "id" : "8eb07d18-1431-4798-9f23-74aea6affd73",
    "regionName" : "header",
    "type" : "region"
  }, {
    "components" : [ {
      "componentAttributes" : {
        "customTitle" : "",
        "parentRecordId" : "{!recordId}",
        "relatedListName" : "{!relationshipApiName}",
        "showBreadCrumbs" : true,
        "showCustomTitle" : false,
        "showManualRefreshButton" : true,
        "showRowNumbers" : true
      },
      "componentName" : "forceCommunity:relatedList",
      "id" : "95cb45a5-0d98-419f-9610-37a8692f3574",
      "renderPriority" : "NEUTRAL",
      "renditionMap" : { },
      "type" : "component"
    } ],
    "id" : "4b42270f-77be-4d48-8567-ea9f24577ba4",
    "regionName" : "content",
    "type" : "region"
  }, {
    "id" : "076afd03-06ce-46d0-88ad-fb50b46d1dd7",
    "regionName" : "footer",
    "type" : "region"
  } ],
  "themeLayoutType" : "Inner",
  "type" : "view",
  "viewType" : "relatedlist-005"
}