{
  "definitionName" : "citizen:branding-citizen",
  "id" : "b537ea27-111a-4557-bd96-2cfd845fff08",
  "label" : "Citizen",
  "type" : "brandingSet",
  "values" : {
    "ActionColor" : "rgb(6, 143, 199)",
    "BorderColor" : "#D4D4D4",
    "CardBackgroundColor" : "rgba(255, 255, 255, 0)",
    "CompanyLogo" : "/sfsites/assets/themes/citizen-logo.png",
    "DetailTextColor" : "rgba(0, 0, 0, 0.6)",
    "ErrorFontColor" : "#ff9e9e",
    "HeaderFonts" : "Montserrat",
    "LinkColor" : "#111111",
    "LoginBackgroundColor" : "#F4F4F4",
    "LoginBackgroundImage" : "../../../../sfsites/picasso/core/external/salesforceIdentity/images/background.jpg?v=1",
    "OverlayTextColor" : "#FFFFFF",
    "PageBackgroundColor" : "#FFFFFF",
    "PrimaryFont" : "Nunito",
    "TextColor" : "rgba(0, 0, 0, 0.8)",
    "TextTransformStyle" : "none",
    "_ActionColorDarker" : "#056b95",
    "_ActionColorTrans" : "rgba(6, 143, 199, 0.9)",
    "_HoverColor" : "rgba(6, 143, 199, 0.05)",
    "_LinkColorDarker" : "#000000",
    "_OverlayTextColorShadow" : "#000000"
  }
}