{
  "definitionName" : "helpCenter:branding-helpCenter",
  "id" : "3f9f3c99-3164-4576-b917-bb6e5bfe2c2a",
  "label" : "Help Center",
  "type" : "brandingSet",
  "values" : {
    "ActionColor" : "#684c43",
    "BorderColor" : "#efefef",
    "CardBackgroundColor" : "rgba(255, 255, 255, 0)",
    "CompanyLogo" : "/sfsites/assets/themes/capricorn-logo-hc.png",
    "DetailTextColor" : "rgba(0, 0, 0, 0.6)",
    "ErrorFontColor" : "#ff9e9e",
    "HeaderFonts" : "Montserrat",
    "LinkColor" : "#415aa8",
    "LoginBackgroundColor" : "#F4F4F4",
    "LoginBackgroundImage" : "../../../../sfsites/picasso/core/external/salesforceIdentity/images/background.jpg?v=1",
    "OverlayTextColor" : "#FFFFFF",
    "PageBackgroundColor" : "#FFFFFF",
    "PrimaryFont" : "Lato",
    "TextColor" : "#4f4f4f",
    "TextTransformStyle" : "none",
    "_ActionColorDarker" : "#082695",
    "_ActionColorTrans" : "rgba(10, 50, 198, 0.9)",
    "_BackgroundColor1" : "rgb(235, 235, 235)",
    "_BackgroundColor2" : "rgb(194, 194, 194)",
    "_BackgroundColor3" : "rgb(133, 133, 133)",
    "_DxpPageBackgroundColor" : "#FFFFFF",
    "_HoverColor" : "rgba(10, 50, 198, 0.05)",
    "_LinkColorDarker" : "#000000",
    "_NeutralColor" : "#ecebea",
    "_NeutralColor1" : "rgb(217, 215, 213)",
    "_NeutralColor2" : "rgb(178, 174, 170)",
    "_NeutralColor3" : "rgb(118, 113, 107)",
    "_NeutralForegroundColor" : "#000",
    "_NeutralForegroundColor1" : "#000",
    "_NeutralForegroundColor2" : "#000",
    "_NeutralForegroundColor3" : "#fff",
    "_OverlayTextColorShadow" : "#000000",
    "_PrimaryAccentColor1" : "rgb(79, 58, 51)",
    "_PrimaryAccentColor2" : "rgb(29, 22, 19)",
    "_PrimaryAccentColor3" : "rgb(0, 0, 0)",
    "_PrimaryAccentForegroundColor1" : "rgb(255, 255, 255)",
    "_PrimaryAccentForegroundColor2" : "rgb(255, 255, 255)",
    "_PrimaryAccentForegroundColor3" : "rgb(255, 255, 255)",
    "_TextColor1" : "rgb(59, 59, 59)",
    "_TextColor2" : "rgb(18, 18, 18)",
    "_TextColor3" : "rgb(0, 0, 0)",
    "_brandNavigationBarBackgroundColor" : "rgba(128,128,128,.75)",
    "_brandNavigationItemBackgroundColorHover" : "rgba(0,0,0,.2)",
    "_brandNavigationItemDividerColor" : "rgba(255, 255, 255, 0.2)",
    "brandNavigationBackgroundColor" : "rgb(128,128,128)",
    "brandNavigationBarBackgroundColor" : "rgba(128,128,128,.75)",
    "brandNavigationColorText" : "#FFFFFF"
  }
}