<?xml version="1.0" encoding="UTF-8"?>
<CustomTab xmlns="http://soap.sforce.com/2006/04/metadata">
    <customObject>true</customObject>
    <description>Account Extension</description>
    <motif>Custom251: TV Widescreen</motif>
</CustomTab>
