<?xml version="1.0" encoding="UTF-8"?>
<CustomTab xmlns="http://soap.sforce.com/2006/04/metadata">
    <description>Analyze the permission details for users, profiles, permission sets and PSGs.</description>
    <label>Permission Workbench</label>
    <lwcComponent>fferpcore__permissionWorkbench</lwcComponent>
    <motif>Custom251: TV Widescreen</motif>
</CustomTab>
