<?xml version="1.0" encoding="UTF-8"?>
<CustomTab xmlns="http://soap.sforce.com/2006/04/metadata">
    <description>Services Delivery Workspace.</description>
    <flexiPage>psaws__time_and_expense_workspace</flexiPage>
    <label>Services Delivery Workspace</label>
    <motif>Custom312: TV Widescreen</motif>
</CustomTab>
