<?xml version="1.0" encoding="UTF-8"?>
<CustomTab xmlns="http://soap.sforce.com/2006/04/metadata">
    <description>Title of the Services Billing Workspace tab.</description>
    <flexiPage>psaws__services_billing_workspace</flexiPage>
    <label>Services Billing Workspace</label>
    <motif>Custom312: TV Widescreen</motif>
</CustomTab>
