<?xml version="1.0" encoding="UTF-8"?>
<CustomTab xmlns="http://soap.sforce.com/2006/04/metadata">
    <description>Created by Lightning App Builder</description>
    <flexiPage>Resource_Planning</flexiPage>
    <label>Resource Planning</label>
    <motif>Custom79: Measuring Tape</motif>
</CustomTab>
