{
  "activeViewId" : "045de0e3-1476-4236-b8b6-ea21e96613db",
  "appPageId" : "a18e22dd-630b-46a8-99b1-564a59111458",
  "configurationTags" : [ ],
  "id" : "1d624f75-29c2-4823-b4f1-3826117bcc00",
  "label" : "Dashboard Related List",
  "routeType" : "relatedlist-01Z",
  "type" : "route",
  "urlPrefix" : "dashboard"
}