{
  "activeViewId" : "9015a9ab-49b4-406b-afaf-7955865d3509",
  "appPageId" : "a18e22dd-630b-46a8-99b1-564a59111458",
  "configurationTags" : [ ],
  "id" : "3b788039-b670-4f60-b74e-3fda91abcad4",
  "label" : "Dashboard List",
  "routeType" : "list-01Z",
  "type" : "route",
  "urlPrefix" : "dashboard"
}