{
  "activeViewId" : "4db24c8d-6c36-4f1b-9fdf-5500f995f843",
  "appPageId" : "ba4f894b-a51a-433b-8aec-677d62e957dc",
  "configurationTags" : [ ],
  "id" : "80ebb2a4-d0d2-40da-bbc8-5870af822fd7",
  "label" : "Forgot Password",
  "routeType" : "forgot-password",
  "type" : "route",
  "urlPrefix" : "ForgotPassword"
}