{
  "activeViewId" : "6ecd43c4-de3f-4624-b15c-20e9e218f442",
  "appPageId" : "ba4f894b-a51a-433b-8aec-677d62e957dc",
  "configurationTags" : [ ],
  "id" : "e6f59a05-8fd7-4861-91d9-d1bf41474598",
  "label" : "Login",
  "routeType" : "login-home",
  "type" : "route",
  "urlPrefix" : ""
}