{
  "activeViewId" : "8a6c8fb4-9154-402f-bdb5-5546b7c3b982",
  "appPageId" : "a18e22dd-630b-46a8-99b1-564a59111458",
  "configurationTags" : [ ],
  "id" : "0557dab0-c687-4e33-b772-41c013478de4",
  "label" : "Question Detail",
  "routeType" : "feeditem",
  "type" : "route",
  "urlPrefix" : "question"
}