{
  "activeViewId" : "4c5a7bf2-2841-422a-9b22-ec7bad7404be",
  "appPageId" : "a18e22dd-630b-46a8-99b1-564a59111458",
  "configurationTags" : [ ],
  "id" : "5368c0fa-f2f6-440f-90f5-495e7b45cdec",
  "label" : "Report List",
  "routeType" : "list-00O",
  "type" : "route",
  "urlPrefix" : "report"
}