{
  "activeViewId" : "62482c05-5326-4463-95bb-b8e01398982d",
  "appPageId" : "a18e22dd-630b-46a8-99b1-564a59111458",
  "configurationTags" : [ "allow-in-static-site" ],
  "id" : "ad39b804-789d-4988-b907-2108d3ec2f35",
  "label" : "Service Not Available",
  "routeType" : "service-not-available",
  "type" : "route",
  "urlPrefix" : "service-not-available"
}