{
  "cmsSettings" : { },
  "currentThemeId" : "1605127d-b80f-4d5c-8c70-d8bd9de6f5c6",
  "headMarkup" : null,
  "id" : "26f3a209-dc55-4264-ad2b-8c6fd9290193",
  "isRelaxedCSPLevel" : false,
  "label" : "main",
  "templateName" : "Service Community Template",
  "type" : "appPage"
}