{
  "appPageId" : "e4f43b6d-c6c5-4237-8a9a-154f462cb4b2",
  "componentName" : "siteforce:sldsOneColLayout",
  "id" : "c2d4e227-ceca-455f-8b24-0cc39fcd6faa",
  "label" : "File List",
  "regions" : [ {
    "id" : "f812723f-a9e8-4301-8a22-a03058acef2a",
    "regionName" : "header",
    "type" : "region"
  }, {
    "components" : [ {
      "componentAttributes" : {
        "pageSize" : 25
      },
      "componentName" : "forceCommunity:filesList",
      "id" : "de9380d8-b331-4bfe-8e0a-cefcd4e6dd92",
      "renderPriority" : "NEUTRAL",
      "renditionMap" : { },
      "type" : "component"
    } ],
    "id" : "77556c8d-4722-4b61-b3f7-625e037b3476",
    "regionName" : "content",
    "type" : "region"
  }, {
    "id" : "0312562d-1c72-424a-91db-b6c2f830a0dd",
    "regionName" : "footer",
    "type" : "region"
  } ],
  "themeLayoutType" : "Inner",
  "type" : "view",
  "viewType" : "list-069"
}