{
  "appPageId" : "e4f43b6d-c6c5-4237-8a9a-154f462cb4b2",
  "componentName" : "siteforce:sldsOneColLayout",
  "id" : "ca2d70d8-2b83-4301-b03f-a08423559e33",
  "label" : "Flow",
  "regions" : [ {
    "id" : "7e5e66fc-983a-45b1-befa-36606d50e70e",
    "regionName" : "header",
    "type" : "region"
  }, {
    "components" : [ {
      "componentAttributes" : {
        "flowArguments" : "",
        "flowLayout" : "oneColumn",
        "flowName" : "{!flowName}"
      },
      "componentName" : "forceCommunity:flowCommunity",
      "id" : "3ee00358-244f-4bfe-8176-ae096df0f178",
      "renderPriority" : "NEUTRAL",
      "renditionMap" : { },
      "type" : "component"
    } ],
    "id" : "2ab411d5-181d-4e2b-85bf-691d0bc11d6d",
    "regionName" : "content",
    "type" : "region"
  }, {
    "id" : "fd67e8bd-616c-4f8d-b4f9-e0507349ac9b",
    "regionName" : "footer",
    "type" : "region"
  } ],
  "themeLayoutType" : "Inner",
  "type" : "view",
  "viewType" : "flow"
}