{
  "appPageId" : "e4f43b6d-c6c5-4237-8a9a-154f462cb4b2",
  "componentName" : "siteforce:sldsOneColLayout",
  "id" : "66956b5a-65ef-4c8c-937e-e06007b8fe94",
  "label" : "Related Record List",
  "regions" : [ {
    "id" : "47fb0602-f7a8-424f-b5f0-784f26af6b6e",
    "regionName" : "header",
    "type" : "region"
  }, {
    "components" : [ {
      "componentAttributes" : {
        "customTitle" : "",
        "parentRecordId" : "{!recordId}",
        "relatedListName" : "{!relationshipApiName}",
        "showBreadCrumbs" : true,
        "showCustomTitle" : false,
        "showManualRefreshButton" : true,
        "showRowNumbers" : true
      },
      "componentName" : "forceCommunity:relatedList",
      "id" : "cf0cfe7a-ea3f-4e0b-8450-638ebbf9970b",
      "renderPriority" : "NEUTRAL",
      "renditionMap" : { },
      "type" : "component"
    } ],
    "id" : "6fc6bafc-1b25-4502-880b-982833a415c1",
    "regionName" : "content",
    "type" : "region"
  }, {
    "id" : "eba1bc04-ae16-4359-a9ec-9d0eb7a6e3fd",
    "regionName" : "footer",
    "type" : "region"
  } ],
  "themeLayoutType" : "Inner",
  "type" : "view",
  "viewType" : "relatedlist"
}