{
  "appPageId" : "a18e22dd-630b-46a8-99b1-564a59111458",
  "componentName" : "siteforce:sldsOneColLayout",
  "id" : "b95fa74c-ef2c-464d-9298-dd2af91bb4fe",
  "label" : "Create Record",
  "regions" : [ {
    "id" : "f321e6d3-5b2f-4081-ae73-dd71cd046b61",
    "regionName" : "header",
    "type" : "region"
  }, {
    "components" : [ {
      "componentAttributes" : {
        "actionApiName" : "{!actionApiName}"
      },
      "componentName" : "forceCommunity:createRecordForm",
      "id" : "d362cb2b-150c-4277-a2d2-54db83ffefbb",
      "renderPriority" : "NEUTRAL",
      "renditionMap" : { },
      "type" : "component"
    } ],
    "id" : "c2ece4f0-e151-49b0-ba33-3ac7d2030e21",
    "regionName" : "content",
    "type" : "region"
  }, {
    "id" : "52b19447-9bb5-462e-9c24-7a4ec3346122",
    "regionName" : "footer",
    "type" : "region"
  } ],
  "themeLayoutType" : "Inner",
  "type" : "view",
  "viewType" : "createrecord"
}