{
  "appPageId" : "a18e22dd-630b-46a8-99b1-564a59111458",
  "componentName" : "siteforce:sldsOneColLayout",
  "id" : "045de0e3-1476-4236-b8b6-ea21e96613db",
  "label" : "Dashboard Related List",
  "regions" : [ {
    "id" : "e24516b4-24f6-4f5e-9f53-dc38d7414b19",
    "regionName" : "header",
    "type" : "region"
  }, {
    "components" : [ {
      "componentAttributes" : {
        "customTitle" : "",
        "parentRecordId" : "{!recordId}",
        "relatedListName" : "{!relationshipApiName}",
        "showBreadCrumbs" : true,
        "showCustomTitle" : false,
        "showManualRefreshButton" : true,
        "showRowNumbers" : true
      },
      "componentName" : "forceCommunity:relatedList",
      "id" : "ec700702-ad41-4dcb-a0d7-6c326af61003",
      "renderPriority" : "NEUTRAL",
      "renditionMap" : { },
      "type" : "component"
    } ],
    "id" : "abbb4463-30ae-4e2d-b71b-b9494e5ec4ec",
    "regionName" : "content",
    "type" : "region"
  }, {
    "id" : "9c919975-e597-4ecd-8d4e-5d79ebc3c736",
    "regionName" : "footer",
    "type" : "region"
  } ],
  "themeLayoutType" : "Inner",
  "type" : "view",
  "viewType" : "relatedlist-01Z"
}