{
  "appPageId" : "a18e22dd-630b-46a8-99b1-564a59111458",
  "componentName" : "siteforce:sldsOneColLayout",
  "id" : "9015a9ab-49b4-406b-afaf-7955865d3509",
  "label" : "Dashboard List",
  "regions" : [ {
    "id" : "9ebc0cfd-9e59-468f-8020-d97e74e5095c",
    "regionName" : "header",
    "type" : "region"
  }, {
    "components" : [ {
      "componentAttributes" : { },
      "componentName" : "forceCommunity:dashboardList",
      "id" : "fa19f4f7-200a-4f53-adb9-eeb612c7f1f6",
      "renderPriority" : "NEUTRAL",
      "renditionMap" : { },
      "type" : "component"
    } ],
    "id" : "03c72f32-9a3f-4c42-8eab-4ad63cc51939",
    "regionName" : "content",
    "type" : "region"
  }, {
    "id" : "c1e286b7-ff49-4610-b608-17d2ff2c37e5",
    "regionName" : "footer",
    "type" : "region"
  } ],
  "themeLayoutType" : "Inner",
  "type" : "view",
  "viewType" : "list-01Z"
}