{
  "appPageId" : "a18e22dd-630b-46a8-99b1-564a59111458",
  "componentName" : "siteforce:sldsOneColLayout",
  "id" : "8cbc1d26-465b-433f-afb5-80fb364d8e0c",
  "label" : "Error",
  "regions" : [ {
    "id" : "25fbb115-c212-4775-a963-31c23469c02d",
    "regionName" : "header",
    "type" : "region"
  }, {
    "components" : [ {
      "componentAttributes" : {
        "richTextValue" : "<div style='text-align: center;'>Invalid Page</div>"
      },
      "componentName" : "forceCommunity:richTextInline",
      "id" : "8918c40a-f536-4e13-8139-c2ed4032983e",
      "renderPriority" : "NEUTRAL",
      "renditionMap" : { },
      "type" : "component"
    } ],
    "id" : "90437de2-5221-48b9-8d82-f419d5b09506",
    "regionName" : "content",
    "type" : "region"
  }, {
    "id" : "b6f7e4e6-6d34-4b6b-88e2-3019a4cf8d7a",
    "regionName" : "footer",
    "type" : "region"
  }, {
    "components" : [ {
      "componentAttributes" : {
        "customHeadTags" : "",
        "description" : "",
        "title" : "Error"
      },
      "componentName" : "forceCommunity:seoAssistant",
      "id" : "8ab428ea-5f06-4834-ac82-397253f57c4a",
      "renditionMap" : { },
      "type" : "component"
    } ],
    "id" : "fd935d35-bd42-48cf-9ede-f1d1a68abd99",
    "regionName" : "sfdcHiddenRegion",
    "type" : "region"
  } ],
  "themeLayoutType" : "Inner",
  "type" : "view",
  "viewType" : "error"
}