{
  "appPageId" : "a18e22dd-630b-46a8-99b1-564a59111458",
  "componentName" : "siteforce:sldsOneColLayout",
  "id" : "381fe901-662a-4241-a471-5bc10b0bdafa",
  "label" : "File Related List",
  "regions" : [ {
    "id" : "2f9c4df6-0968-4aae-83b2-ac810c7cd97b",
    "regionName" : "header",
    "type" : "region"
  }, {
    "components" : [ {
      "componentAttributes" : {
        "customTitle" : "",
        "parentRecordId" : "{!recordId}",
        "relatedListName" : "{!relationshipApiName}",
        "showBreadCrumbs" : true,
        "showCustomTitle" : false,
        "showManualRefreshButton" : true,
        "showRowNumbers" : true
      },
      "componentName" : "forceCommunity:relatedList",
      "id" : "fedace49-78d2-448c-8641-a240b3062fcf",
      "renderPriority" : "NEUTRAL",
      "renditionMap" : { },
      "type" : "component"
    } ],
    "id" : "d0081471-bb15-428e-a68b-aaee78912bde",
    "regionName" : "content",
    "type" : "region"
  }, {
    "id" : "62291d61-b99a-41fc-ad34-5e1813d13ea3",
    "regionName" : "footer",
    "type" : "region"
  } ],
  "themeLayoutType" : "Inner",
  "type" : "view",
  "viewType" : "relatedlist-069"
}