{
  "appPageId" : "a18e22dd-630b-46a8-99b1-564a59111458",
  "componentName" : "siteforce:sldsOneColLayout",
  "id" : "4293d635-7956-48ff-8d0f-6c926d60efae",
  "label" : "File List",
  "regions" : [ {
    "id" : "81865dcf-6009-4beb-8830-111cea726293",
    "regionName" : "header",
    "type" : "region"
  }, {
    "components" : [ {
      "componentAttributes" : {
        "pageSize" : 25
      },
      "componentName" : "forceCommunity:filesList",
      "id" : "fbf40153-0b99-4e93-ae40-ad4b5c40ac85",
      "renderPriority" : "NEUTRAL",
      "renditionMap" : { },
      "type" : "component"
    } ],
    "id" : "bb1cffd9-f554-4490-8d65-9664c8d83f06",
    "regionName" : "content",
    "type" : "region"
  }, {
    "id" : "ead56060-1f01-492d-bfd0-e9a68f5c5b87",
    "regionName" : "footer",
    "type" : "region"
  } ],
  "themeLayoutType" : "Inner",
  "type" : "view",
  "viewType" : "list-069"
}