{
  "appPageId" : "a18e22dd-630b-46a8-99b1-564a59111458",
  "componentName" : "siteforce:sldsOneColLayout",
  "id" : "523b29a2-6f54-40ad-89ec-0225eb61db9f",
  "label" : "Group Related List",
  "regions" : [ {
    "id" : "74dc3e3d-9b96-4b4a-807d-2c9ecd88416a",
    "regionName" : "header",
    "type" : "region"
  }, {
    "components" : [ {
      "componentAttributes" : {
        "customTitle" : "",
        "parentRecordId" : "{!recordId}",
        "relatedListName" : "{!relationshipApiName}",
        "showBreadCrumbs" : true,
        "showCustomTitle" : false,
        "showManualRefreshButton" : true,
        "showRowNumbers" : true
      },
      "componentName" : "forceCommunity:relatedList",
      "id" : "e0475155-d987-4531-b0ac-eaf219660aed",
      "renderPriority" : "NEUTRAL",
      "renditionMap" : { },
      "type" : "component"
    } ],
    "id" : "00fc0640-8289-4c1c-9817-b27bafda9781",
    "regionName" : "content",
    "type" : "region"
  }, {
    "id" : "af25360e-564c-447b-8491-b961de94ffba",
    "regionName" : "footer",
    "type" : "region"
  } ],
  "themeLayoutType" : "Inner",
  "type" : "view",
  "viewType" : "relatedlist-0F9"
}