{
  "appPageId" : "a18e22dd-630b-46a8-99b1-564a59111458",
  "componentName" : "siteforce:sldsOneColLayout",
  "id" : "c533b3b3-a2c0-421c-ab57-33c49742f089",
  "label" : "Group Detail",
  "regions" : [ {
    "id" : "4b9a87ed-122a-4853-85a8-91f00b8df245",
    "regionName" : "header",
    "type" : "region"
  }, {
    "components" : [ {
      "componentAttributes" : {
        "detailsTabLabel" : "Details",
        "engagementManagersOnly" : false,
        "engagementTabLabel" : "Engagement",
        "feedTabLabel" : "Feed",
        "recordId" : "{!recordId}",
        "relatedTabLabel" : "Related"
      },
      "componentName" : "forceCommunity:groupRecordHomeTabs",
      "id" : "672ad13d-e0a2-4f52-9c4b-06b47267d6ce",
      "renderPriority" : "NEUTRAL",
      "renditionMap" : { },
      "type" : "component"
    } ],
    "id" : "5c989078-99ea-481f-82f9-ed4d8112b0b0",
    "regionName" : "content",
    "type" : "region"
  }, {
    "id" : "06bf7d63-695b-4f3a-bcd4-9c76b0f14a75",
    "regionName" : "footer",
    "type" : "region"
  }, {
    "components" : [ {
      "componentAttributes" : {
        "customHeadTags" : "",
        "description" : "",
        "title" : "{!Record._Object}: {!Record._Title}"
      },
      "componentName" : "forceCommunity:seoAssistant",
      "id" : "541738b9-06d3-4c74-be95-420bdd1b3730",
      "renditionMap" : { },
      "type" : "component"
    } ],
    "id" : "0d085243-065a-4c2b-b4bd-f1b42347dca7",
    "regionName" : "sfdcHiddenRegion",
    "type" : "region"
  } ],
  "themeLayoutType" : "Inner",
  "type" : "view",
  "viewType" : "detail-0F9"
}