{
  "appPageId" : "ba4f894b-a51a-433b-8aec-677d62e957dc",
  "componentName" : "siteforce:sldsOneColLayout",
  "id" : "ce7bccff-591b-4b87-a18b-b061dc5d052f",
  "label" : "Login Error",
  "regions" : [ {
    "id" : "d4a92a0f-1c2c-459c-9b65-2887532b8d22",
    "regionName" : "header",
    "type" : "region"
  }, {
    "components" : [ {
      "componentAttributes" : {
        "richTextValue" : "<div style=\"text-align: center;\">Invalid Page</div>"
      },
      "componentName" : "forceCommunity:richTextInline",
      "id" : "566533d9-2ab6-42a0-9457-79a0da627764",
      "renderPriority" : "NEUTRAL",
      "renditionMap" : { },
      "type" : "component"
    } ],
    "id" : "730d728b-4d45-45dd-bf5b-934ad5e36a34",
    "regionName" : "content",
    "type" : "region"
  }, {
    "id" : "81f0c27c-8283-4bb3-8324-e94b6e8fb87f",
    "regionName" : "footer",
    "type" : "region"
  }, {
    "components" : [ {
      "componentAttributes" : {
        "customHeadTags" : "",
        "description" : "",
        "title" : "Login Error"
      },
      "componentName" : "forceCommunity:seoAssistant",
      "id" : "a0f15856-dc79-4d2a-b5ef-fe3517d55050",
      "renditionMap" : { },
      "type" : "component"
    } ],
    "id" : "c53cb6d0-863f-45dc-add3-7c76cea1676b",
    "regionName" : "sfdcHiddenRegion",
    "type" : "region"
  } ],
  "themeLayoutType" : "Login",
  "type" : "view",
  "viewType" : "login-error"
}