{
  "appPageId" : "a18e22dd-630b-46a8-99b1-564a59111458",
  "componentName" : "siteforce:sldsOneColLayout",
  "id" : "fec0e08b-de46-48f3-adf9-349dd65bfc26",
  "label" : "Quip Docs Related List",
  "regions" : [ {
    "id" : "2df1e41e-dcd3-4bde-bd7f-c3e04909dccb",
    "regionName" : "header",
    "type" : "region"
  }, {
    "components" : [ {
      "componentAttributes" : {
        "parentRecordId" : "{!recordId}"
      },
      "componentName" : "forceCommunity:relatedQuipItemsView",
      "id" : "b92fa439-dd8e-4b01-ab4b-8c17e48da886",
      "renderPriority" : "NEUTRAL",
      "renditionMap" : { },
      "type" : "component"
    } ],
    "id" : "b3c36570-ca82-4341-be96-228a1361cdfb",
    "regionName" : "content",
    "type" : "region"
  }, {
    "id" : "6a5a39c7-e932-4af9-af07-726c5f2897c5",
    "regionName" : "footer",
    "type" : "region"
  } ],
  "themeLayoutType" : "Inner",
  "type" : "view",
  "viewType" : "extrelated-quip"
}