{
  "appPageId" : "a18e22dd-630b-46a8-99b1-564a59111458",
  "componentName" : "siteforce:sldsOneColLayout",
  "id" : "737b6e3c-e084-4c21-9b37-e0bfa01f7dcc",
  "label" : "Record Detail",
  "regions" : [ {
    "id" : "e77a4c1e-36e8-4b36-9d2c-9fc4b5010a22",
    "regionName" : "header",
    "type" : "region"
  }, {
    "components" : [ {
      "componentAttributes" : {
        "recordId" : "{!recordId}"
      },
      "componentName" : "forceCommunity:recordHeadline",
      "id" : "885f59fc-0b49-4a2c-8021-30e1413ffd34",
      "renderPriority" : "NEUTRAL",
      "renditionMap" : { },
      "type" : "component"
    }, {
      "componentAttributes" : {
        "detailsTabLabel" : "Details",
        "discussionsTabLabel" : "Feed",
        "recordId" : "{!recordId}",
        "relatedTabLabel" : "Related",
        "tab1Type" : "details",
        "tab2Type" : "related",
        "tab3Type" : "chatter",
        "tab4Type" : "none",
        "timelineTabLabel" : "Activity"
      },
      "componentName" : "forceCommunity:recordHomeTabs",
      "id" : "236286e3-5cb8-420f-b681-ca62d1679a10",
      "renderPriority" : "NEUTRAL",
      "renditionMap" : { },
      "type" : "component"
    } ],
    "id" : "7c37f6fc-f200-471b-b23f-643f073920c8",
    "regionName" : "content",
    "type" : "region"
  }, {
    "id" : "b569b8f3-8bb6-4b9d-b3d6-ff0eaa50d216",
    "regionName" : "footer",
    "type" : "region"
  }, {
    "components" : [ {
      "componentAttributes" : {
        "customHeadTags" : "",
        "description" : "",
        "title" : "{!Record._Object}: {!Record._Title}"
      },
      "componentName" : "forceCommunity:seoAssistant",
      "id" : "85e75e24-74d4-4096-88fd-49209ca7614d",
      "renditionMap" : { },
      "type" : "component"
    } ],
    "id" : "38099a10-0427-4610-9386-ecc7473e8a22",
    "regionName" : "sfdcHiddenRegion",
    "type" : "region"
  } ],
  "themeLayoutType" : "Inner",
  "type" : "view",
  "viewType" : "detail"
}