{
  "appPageId" : "a18e22dd-630b-46a8-99b1-564a59111458",
  "componentName" : "siteforce:sldsOneColLayout",
  "id" : "cf18b0be-0eaa-4b6b-b5b1-0e54e34d9509",
  "label" : "Report Related List",
  "regions" : [ {
    "id" : "8bb83852-fc61-4da5-989a-d3c5954037f5",
    "regionName" : "header",
    "type" : "region"
  }, {
    "components" : [ {
      "componentAttributes" : {
        "customTitle" : "",
        "parentRecordId" : "{!recordId}",
        "relatedListName" : "{!relationshipApiName}",
        "showBreadCrumbs" : true,
        "showCustomTitle" : false,
        "showManualRefreshButton" : true,
        "showRowNumbers" : true
      },
      "componentName" : "forceCommunity:relatedList",
      "id" : "78f8268f-60db-4f5b-a833-2259857c9d57",
      "renderPriority" : "NEUTRAL",
      "renditionMap" : { },
      "type" : "component"
    } ],
    "id" : "6b72c2c1-b758-417b-a0ec-1318b9b7a704",
    "regionName" : "content",
    "type" : "region"
  }, {
    "id" : "666ced93-ad14-41f4-82c8-45215ddfab04",
    "regionName" : "footer",
    "type" : "region"
  } ],
  "themeLayoutType" : "Inner",
  "type" : "view",
  "viewType" : "relatedlist-00O"
}