{
  "appPageId" : "a18e22dd-630b-46a8-99b1-564a59111458",
  "componentName" : "siteforce:sldsOneColLayout",
  "id" : "92592238-7f94-4000-9db6-d11494569551",
  "label" : "User List",
  "regions" : [ {
    "id" : "1ef5f1c5-7c00-4b0d-9455-74a18353e506",
    "regionName" : "header",
    "type" : "region"
  }, {
    "id" : "a5bf224a-4296-4d67-b062-68d01b33c937",
    "regionName" : "content",
    "type" : "region"
  }, {
    "id" : "121baad2-ad97-4e72-9533-22667f5c6a64",
    "regionName" : "footer",
    "type" : "region"
  } ],
  "themeLayoutType" : "Inner",
  "type" : "view",
  "viewType" : "list-005"
}