{
  "activeBrandingSetId" : "ce6bb733-eb3b-4fa4-b6a7-dbf913975a60",
  "customCSS" : ".comm-user-profile-menu{\n    display:none\n}\n\n.themeNavTrigger{\n    display:none\n}\n\n.themeHeaderInner{\n    padding-bottom: 97px;\n}",
  "developerName" : "cypress",
  "id" : "65662e5a-4868-45c7-bd6f-18ac1f7b6c1f",
  "label" : "Cypress",
  "layouts" : {
    "7CZGqcEEXk6nKpOimoI18fGTLqW6B5" : "607d37f2-c342-4e54-a4ea-1311ab021860",
    "BG3Jx6x7Auc978ip5nZS12LKQG6mIy" : "9de15ea6-2f01-459c-9019-7776bbaf5fbf",
    "Home" : "5280a89b-1dff-4422-929f-502cd8c6254f",
    "Inner" : "23fd52b3-64cc-4574-9afc-a3ca20802642",
    "Login" : "d27234b5-a55d-4b68-b7e3-a7674342e138",
    "ServiceNotAvailable" : "cddb31bb-bc49-4385-ba17-5657218beb76"
  },
  "type" : "theme",
  "views" : [ {
    "componentAttributes" : { },
    "componentName" : "salesforceIdentity:loginBody2",
    "id" : "d27234b5-a55d-4b68-b7e3-a7674342e138",
    "label" : "Login",
    "regions" : [ {
      "id" : "fb03a1a2-1928-47a3-bf50-1cce47544263",
      "regionName" : "header",
      "type" : "region"
    }, {
      "id" : "6b924de9-e7aa-480c-bc6e-870b1f920e85",
      "regionName" : "content",
      "type" : "region"
    }, {
      "id" : "256b83af-9361-4ff0-a1e4-4ed7d1c5d7e5",
      "regionName" : "footer",
      "type" : "region"
    } ],
    "type" : "view"
  }, {
    "componentAttributes" : { },
    "componentName" : "c:CloudwerxTheme",
    "id" : "23fd52b3-64cc-4574-9afc-a3ca20802642",
    "label" : "Default",
    "regions" : [ {
      "components" : [ {
        "componentAttributes" : {
          "background" : "background: rgb(255,255,255)",
          "backgroundOverlayColor" : "rgba(0, 0, 0, 0.3)",
          "borderBottomColor" : "rgba(33, 33, 33, 0.15)",
          "centerAlignLogo" : false,
          "collapseNavMenu" : true,
          "containHeader" : true,
          "containHeaderWidth" : 1920,
          "dropdownBackgroundColor" : "rgb(255, 255, 255)",
          "dropdownBackgroundHoverColor" : "",
          "dropdownBorderColor" : "rgb(240, 240, 240)",
          "dropdownTextColor" : "",
          "dropdownTextHoverColor" : "",
          "headerHeight" : 5,
          "linkActiveBorderColor" : "",
          "linkColor" : "rgba(0, 0, 0, 0.8)",
          "linkHoverColor" : "rgba(0, 0, 0, 0.7)",
          "linkTextShadowColor" : "rgba(255, 255, 255, 0)",
          "logoWidth" : 190,
          "searchStyle" : "collapsed",
          "showAppLauncher" : false,
          "showNavMenuOnLeft" : true,
          "showNotifications" : true,
          "showProfileMenu" : true,
          "showSearch" : true
        },
        "componentName" : "forceCommunity:themeHeaderCompact",
        "id" : "de564f86-7ee6-4d24-ab3e-f973c6184020",
        "regions" : [ {
          "components" : [ {
            "componentAttributes" : {
              "buttonBackgroundColor" : "",
              "buttonBackgroundHoverColor" : "",
              "buttonBorderColor" : "rgba(0, 0, 0, 0)",
              "buttonBorderRadius" : 4,
              "buttonText" : "Log in",
              "buttonTextColor" : "",
              "buttonTextHoverColor" : "",
              "customizableUserProfileMenuEditor" : "Default_User_Profile_Menu1",
              "menuStyleSettings" : "{\"selectedMenuStyleSetting\":\"iconOnly\",\"selectedIconSetting\":\"userAvatar\",\"includeCompanyName\":false,\"selectedTextOrientationSetting\":\"right\"}"
            },
            "componentName" : "forceCommunity:customizableUserProfileMenu",
            "id" : "ea9fe0ee-43a7-41e4-97f2-0eb00a8e45e9",
            "renditionMap" : { },
            "type" : "component"
          } ],
          "id" : "5dc3b4af-bd00-42b2-b673-f555d93f6532",
          "regionName" : "themeHeaderProfileMenu",
          "type" : "region"
        }, {
          "components" : [ {
            "componentAttributes" : {
              "backgroundColor" : "rgb(255, 255, 255)",
              "borderColor" : "rgba(0, 0, 0, 0.8)",
              "borderRadius" : 4,
              "borderStyle" : "bottomborder",
              "buttonColor" : "",
              "buttonHoverColor" : "",
              "crossObjectTypeaheadApiNames" : "",
              "iconColor" : "rgba(0, 0, 0, 0.8)",
              "placeholderText" : "Search...",
              "placeholderTextColor" : "rgba(0, 0, 0, 0.6)",
              "showSearchButton" : false,
              "textColor" : "rgba(0, 0, 0, 0.8)",
              "typeaheadResultMax" : 5,
              "useTypeahead" : true
            },
            "componentName" : "forceCommunity:themeSearch",
            "id" : "45546320-da1c-4a82-a5b8-53f4d9b35495",
            "renditionMap" : { },
            "type" : "component"
          } ],
          "id" : "ba08d692-c0ef-4119-bc87-a943ae2c7ea1",
          "regionName" : "search",
          "type" : "region"
        }, {
          "components" : [ {
            "componentAttributes" : {
              "navAlignment" : "left",
              "navItemThreshold" : 4,
              "navigationMenuEditorRefresh" : ""
            },
            "componentName" : "forceCommunity:themeNav",
            "id" : "513f068f-7ba9-4951-ab8f-e7913d8feb62",
            "renditionMap" : { },
            "type" : "component"
          } ],
          "id" : "0ef12d77-692c-40eb-a3e2-3a2d8fac3d67",
          "regionName" : "nav",
          "type" : "region"
        }, {
          "id" : "d1646d69-143f-4235-8976-fa3a42f1459d",
          "regionName" : "cartIcon",
          "type" : "region"
        } ],
        "renditionMap" : { },
        "type" : "component"
      } ],
      "id" : "dc064ae2-31fa-4c60-9614-a648a6ae3d78",
      "regionName" : "themeHeader",
      "type" : "region"
    }, {
      "components" : [ {
        "componentAttributes" : {
          "bgImage" : "background: rgb(0,0,0) url(/sfsites/assets/themes/cypress-background.jpg) top center /cover",
          "bgOverlayColor" : "rgba(0, 0, 0, 0.35)",
          "captionText" : "Limited time offer",
          "captionTextColor" : "rgb(255, 255, 255)",
          "captionTextShadowColor" : "rgba(0, 0, 0, 0.5)",
          "contentAlignment" : "center",
          "contentWidth" : 60,
          "ctaBtnOneBgColor" : "",
          "ctaBtnOneBgHoverColor" : "",
          "ctaBtnOneBorderColor" : "rgba(0, 0, 0, 0)",
          "ctaBtnOneOpenNewTab" : false,
          "ctaBtnOneText" : "Learn More",
          "ctaBtnOneTextColor" : "",
          "ctaBtnOneTextHoverColor" : "",
          "ctaBtnOneUrl" : "",
          "ctaBtnRadius" : 4,
          "ctaBtnTwoBgColor" : "rgba(255, 255, 255, 0)",
          "ctaBtnTwoBgHoverColor" : "rgb(255, 255, 255)",
          "ctaBtnTwoBorderColor" : "rgb(255, 255, 255)",
          "ctaBtnTwoOpenNewTab" : false,
          "ctaBtnTwoText" : "Secondary",
          "ctaBtnTwoTextColor" : "rgb(255, 255, 255)",
          "ctaBtnTwoTextHoverColor" : "rgba(0, 0, 0, 0.8)",
          "ctaBtnTwoUrl" : "",
          "ctaShowBtnOne" : true,
          "ctaShowBtnTwo" : false,
          "fixedHeroWidth" : true,
          "heroHeight" : 140,
          "heroWidth" : 1440,
          "showCaption" : true,
          "showSubtitle" : false,
          "showTitle" : true,
          "subtitleText" : "Subtitle Content",
          "subtitleTextColor" : "rgb(255, 255, 255)",
          "subtitleTextShadowColor" : "rgba(0, 0, 0, 0.5)",
          "titleText" : "Collect bonus rewards.",
          "titleTextColor" : "rgb(255, 255, 255)",
          "titleTextShadowColor" : "rgba(0, 0, 0, 0.5)",
          "type" : "callToAction"
        },
        "componentName" : "forceCommunity:themeHeroStarter",
        "id" : "3725b110-3353-4af4-95ab-cb8169f789c8",
        "regions" : [ {
          "components" : [ {
            "componentAttributes" : {
              "backgroundColor" : "rgb(255, 255, 255)",
              "borderColor" : "rgba(0, 0, 0, 0.5)",
              "borderRadius" : 4,
              "borderStyle" : "outline",
              "buttonColor" : "",
              "buttonHoverColor" : "",
              "crossObjectTypeaheadApiNames" : "",
              "iconColor" : "rgb(255, 255, 255)",
              "placeholderText" : "Ask a question...",
              "placeholderTextColor" : "rgba(0, 0, 0, 0.6)",
              "publicDropdownBackgroundColor" : "rgb(255, 255, 255)",
              "publicDropdownBackgroundHoverColor" : "",
              "publicDropdownBorderColor" : "rgb(240, 240, 240)",
              "publicDropdownTextColor" : "",
              "publicDropdownTextHoverColor" : "",
              "showSearchButton" : true,
              "textColor" : "rgba(0, 0, 0, 0.8)",
              "typeaheadResultMax" : 6,
              "useTypeahead" : true
            },
            "componentName" : "forceCommunity:themeSearchHero",
            "id" : "d9ab813b-3b14-46ff-97b3-ef868d586985",
            "renditionMap" : { },
            "type" : "component"
          } ],
          "id" : "cab30350-fc24-48ec-b66e-0dd8bd6b5827",
          "regionName" : "search",
          "type" : "region"
        } ],
        "renditionMap" : { },
        "type" : "component"
      } ],
      "id" : "780a3d52-8b02-49cb-9505-8b96b9a9f208",
      "regionName" : "themeHero",
      "type" : "region"
    }, {
      "id" : "931a6109-69ac-438f-9155-cee6a0ac3eb8",
      "regionName" : "themeFooter",
      "type" : "region"
    }, {
      "id" : "1ae69baf-47b2-4ac2-adc3-1f158eb70cf1",
      "regionName" : "search",
      "type" : "region"
    }, {
      "id" : "5712f9af-7e8f-4985-9986-2af1a5f47a0c",
      "regionName" : "profileMenu",
      "type" : "region"
    }, {
      "id" : "374cee3c-9e86-4267-a4f5-439de4369ccf",
      "regionName" : "navBar",
      "type" : "region"
    }, {
      "id" : "869d0ed6-1e24-4380-a639-89ff48ebfa78",
      "regionName" : "newHeader",
      "type" : "region"
    }, {
      "id" : "1e93b04e-d468-4879-933d-996b630bd7dc",
      "regionName" : "header",
      "type" : "region"
    }, {
      "id" : "47522422-fd8f-485d-81da-5b6f0281bf0c",
      "regionName" : "footer",
      "type" : "region"
    } ],
    "type" : "view"
  }, {
    "componentAttributes" : {
      "fixedPageWidth" : 1920,
      "headerBgColor" : "rgba(28, 22, 28, 0.9)",
      "isHeaderPinned" : true,
      "isHeroUnderHeader" : false,
      "isPageWidthFixed" : true,
      "showHeader" : true,
      "showHero" : true
    },
    "componentName" : "siteforce:themeLayoutStarter",
    "id" : "5280a89b-1dff-4422-929f-502cd8c6254f",
    "label" : "Home",
    "regions" : [ {
      "components" : [ {
        "componentAttributes" : {
          "background" : "background: rgb(255,255,255)",
          "backgroundOverlayColor" : "rgba(0, 0, 0, 0.3)",
          "borderBottomColor" : "rgba(33, 33, 33, 0.15)",
          "centerAlignLogo" : false,
          "collapseNavMenu" : true,
          "containHeader" : true,
          "containHeaderWidth" : 1205,
          "dropdownBackgroundColor" : "rgb(243, 243, 243)",
          "dropdownBackgroundHoverColor" : "",
          "dropdownBorderColor" : "rgb(240, 240, 240)",
          "dropdownTextColor" : "",
          "dropdownTextHoverColor" : "",
          "headerHeight" : 5,
          "linkActiveBorderColor" : "",
          "linkColor" : "rgba(0, 0, 0, 0.8)",
          "linkHoverColor" : "rgba(0, 0, 0, 0.7)",
          "linkTextShadowColor" : "rgba(255, 255, 255, 0)",
          "logoWidth" : 190,
          "searchStyle" : "collapsed",
          "showAppLauncher" : false,
          "showNavMenuOnLeft" : true,
          "showNotifications" : true,
          "showProfileMenu" : true,
          "showSearch" : false
        },
        "componentName" : "forceCommunity:themeHeaderCompact",
        "id" : "31bff9af-cb76-4ca7-80db-b4077f59663a",
        "regions" : [ {
          "components" : [ {
            "componentAttributes" : {
              "buttonBackgroundColor" : "",
              "buttonBackgroundHoverColor" : "",
              "buttonBorderColor" : "rgba(0, 0, 0, 0)",
              "buttonBorderRadius" : 4,
              "buttonText" : "Log in",
              "buttonTextColor" : "",
              "buttonTextHoverColor" : "",
              "customizableUserProfileMenuEditor" : "Default_User_Profile_Menu1",
              "menuStyleSettings" : "{\"selectedMenuStyleSetting\":\"iconOnly\",\"selectedIconSetting\":\"userAvatar\",\"includeCompanyName\":false,\"selectedTextOrientationSetting\":\"right\"}"
            },
            "componentName" : "forceCommunity:customizableUserProfileMenu",
            "id" : "8226177b-a08f-4150-8f51-48d9571754ce",
            "renditionMap" : { },
            "type" : "component"
          } ],
          "id" : "c37a223c-3bc9-406d-8aa9-5b5d8d21f681",
          "regionName" : "themeHeaderProfileMenu",
          "type" : "region"
        }, {
          "components" : [ {
            "componentAttributes" : {
              "backgroundColor" : "rgb(255, 255, 255)",
              "borderColor" : "rgba(0, 0, 0, 0.8)",
              "borderRadius" : 4,
              "borderStyle" : "bottomborder",
              "buttonColor" : "",
              "buttonHoverColor" : "",
              "crossObjectTypeaheadApiNames" : "",
              "iconColor" : "rgba(0, 0, 0, 0.8)",
              "placeholderText" : "Search...",
              "placeholderTextColor" : "rgba(0, 0, 0, 0.6)",
              "showSearchButton" : false,
              "textColor" : "rgba(0, 0, 0, 0.8)",
              "typeaheadResultMax" : 5,
              "useTypeahead" : true
            },
            "componentName" : "forceCommunity:themeSearch",
            "id" : "88c61e4d-d68f-4118-be64-bb9fe8cb23d1",
            "renditionMap" : { },
            "type" : "component"
          } ],
          "id" : "b57a981c-b612-454a-ac27-3c78f79132e9",
          "regionName" : "search",
          "type" : "region"
        }, {
          "components" : [ {
            "componentAttributes" : {
              "navAlignment" : "left",
              "navItemThreshold" : 4,
              "navigationMenuEditorRefresh" : ""
            },
            "componentName" : "forceCommunity:themeNav",
            "id" : "9fc6ad62-0bf6-48d8-8139-1b485e709b10",
            "renditionMap" : { },
            "type" : "component"
          } ],
          "id" : "9bedd786-0f8f-4391-a2aa-80cd7734a2c6",
          "regionName" : "nav",
          "type" : "region"
        }, {
          "id" : "7a256ba6-513c-4cc4-999c-29c2d7508a8f",
          "regionName" : "cartIcon",
          "type" : "region"
        } ],
        "renditionMap" : { },
        "type" : "component"
      } ],
      "id" : "764d19f2-306f-4cba-a658-04322a53d693",
      "regionName" : "themeHeader",
      "type" : "region"
    }, {
      "components" : [ {
        "componentAttributes" : {
          "bgImage" : "background: rgb(0,0,0) url(/sfsites/c/file-asset/Sydney_Opera_House_and_Harbour_Brid?v=1) center center /cover",
          "bgOverlayColor" : "rgba(0, 0, 0, 0.35)",
          "captionText" : "",
          "captionTextColor" : "rgb(255, 255, 255)",
          "captionTextShadowColor" : "rgba(0, 0, 0, 0.5)",
          "contentAlignment" : "center",
          "contentWidth" : 50,
          "ctaBtnOneBgColor" : "",
          "ctaBtnOneBgHoverColor" : "",
          "ctaBtnOneBorderColor" : "rgba(0, 0, 0, 0)",
          "ctaBtnOneOpenNewTab" : false,
          "ctaBtnOneText" : "Learn More",
          "ctaBtnOneTextColor" : "",
          "ctaBtnOneTextHoverColor" : "",
          "ctaBtnOneUrl" : "",
          "ctaBtnRadius" : 4,
          "ctaBtnTwoBgColor" : "rgba(255, 255, 255, 0)",
          "ctaBtnTwoBgHoverColor" : "rgb(255, 255, 255)",
          "ctaBtnTwoBorderColor" : "rgb(255, 255, 255)",
          "ctaBtnTwoOpenNewTab" : false,
          "ctaBtnTwoText" : "Secondary",
          "ctaBtnTwoTextColor" : "rgb(255, 255, 255)",
          "ctaBtnTwoTextHoverColor" : "rgba(0, 0, 0, 0.8)",
          "ctaBtnTwoUrl" : "",
          "ctaShowBtnOne" : false,
          "ctaShowBtnTwo" : false,
          "fixedHeroWidth" : true,
          "heroHeight" : 100,
          "heroWidth" : 1594,
          "showCaption" : false,
          "showSubtitle" : true,
          "showTitle" : true,
          "subtitleText" : "One stop solution for employee queries and actions.",
          "subtitleTextColor" : "rgb(255, 255, 255)",
          "subtitleTextShadowColor" : "rgba(0, 0, 0, 0.5)",
          "titleText" : "Welcome to Cloudwerx Self Service Portal !",
          "titleTextColor" : "rgb(255, 255, 255)",
          "titleTextShadowColor" : "rgba(0, 0, 0, 0.5)",
          "type" : "callToAction"
        },
        "componentName" : "forceCommunity:themeHeroStarter",
        "id" : "816b6224-a1b1-4582-a757-cc42f8fe2bac",
        "regions" : [ {
          "components" : [ {
            "componentAttributes" : {
              "backgroundColor" : "rgb(255, 255, 255)",
              "borderColor" : "rgba(0, 0, 0, 0.5)",
              "borderRadius" : 4,
              "borderStyle" : "outline",
              "buttonColor" : "",
              "buttonHoverColor" : "",
              "crossObjectTypeaheadApiNames" : "",
              "iconColor" : "rgb(255, 255, 255)",
              "placeholderText" : "Ask a question...",
              "placeholderTextColor" : "rgba(0, 0, 0, 0.6)",
              "publicDropdownBackgroundColor" : "rgb(255, 255, 255)",
              "publicDropdownBackgroundHoverColor" : "",
              "publicDropdownBorderColor" : "rgb(240, 240, 240)",
              "publicDropdownTextColor" : "",
              "publicDropdownTextHoverColor" : "",
              "showSearchButton" : true,
              "textColor" : "rgba(0, 0, 0, 0.8)",
              "typeaheadResultMax" : 6,
              "useTypeahead" : true
            },
            "componentName" : "forceCommunity:themeSearchHero",
            "id" : "ba38bebd-7332-467f-9d36-8b22674e2196",
            "renditionMap" : { },
            "type" : "component"
          } ],
          "id" : "50e48abc-2b23-412a-b8d9-2e3acae4978b",
          "regionName" : "search",
          "type" : "region"
        } ],
        "renditionMap" : { },
        "type" : "component"
      } ],
      "id" : "6c3167d4-a87f-40bf-a66b-f70ce9b939eb",
      "regionName" : "themeHero",
      "type" : "region"
    }, {
      "id" : "825856b0-9b96-4395-907c-9f639089a922",
      "regionName" : "themeFooter",
      "type" : "region"
    }, {
      "id" : "07c6a9ba-ead9-4b54-9357-49f4b072cf59",
      "regionName" : "search",
      "type" : "region"
    }, {
      "id" : "2b285608-4ce4-49db-be5b-9b72338c0229",
      "regionName" : "profileMenu",
      "type" : "region"
    }, {
      "id" : "e344a4e7-e720-4814-b2ee-6cd125c64621",
      "regionName" : "navBar",
      "type" : "region"
    }, {
      "id" : "64c6366c-710e-4487-8d52-78206ed829c1",
      "regionName" : "newHeader",
      "type" : "region"
    } ],
    "type" : "view"
  }, {
    "componentAttributes" : { },
    "componentName" : "c:Cloudwerx_Login_Theme",
    "id" : "607d37f2-c342-4e54-a4ea-1311ab021860",
    "label" : "CustomLoginTheme",
    "regions" : [ {
      "components" : [ {
        "componentAttributes" : {
          "background" : "background: rgb(255,255,255)",
          "backgroundOverlayColor" : "rgba(0, 0, 0, 0.3)",
          "borderBottomColor" : "rgba(33, 33, 33, 0.15)",
          "centerAlignLogo" : false,
          "collapseNavMenu" : true,
          "containHeader" : true,
          "containHeaderWidth" : 1920,
          "dropdownBackgroundColor" : "rgb(255, 255, 255)",
          "dropdownBackgroundHoverColor" : "",
          "dropdownBorderColor" : "rgb(240, 240, 240)",
          "dropdownTextColor" : "",
          "dropdownTextHoverColor" : "",
          "headerHeight" : 5,
          "linkActiveBorderColor" : "",
          "linkColor" : "rgba(0, 0, 0, 0.8)",
          "linkHoverColor" : "rgba(0, 0, 0, 0.7)",
          "linkTextShadowColor" : "rgba(255, 255, 255, 0)",
          "logoWidth" : 190,
          "searchStyle" : "collapsed",
          "showAppLauncher" : false,
          "showNavMenuOnLeft" : true,
          "showNotifications" : true,
          "showProfileMenu" : true,
          "showSearch" : true
        },
        "componentName" : "forceCommunity:themeHeaderCompact",
        "id" : "2881d2ba-e692-473c-b2f7-400e5ffe2fb8",
        "regions" : [ {
          "components" : [ {
            "componentAttributes" : {
              "buttonBackgroundColor" : "",
              "buttonBackgroundHoverColor" : "",
              "buttonBorderColor" : "rgba(0, 0, 0, 0)",
              "buttonBorderRadius" : 4,
              "buttonText" : "Log in",
              "buttonTextColor" : "",
              "buttonTextHoverColor" : "",
              "customizableUserProfileMenuEditor" : "Default_User_Profile_Menu1",
              "menuStyleSettings" : "{\"selectedMenuStyleSetting\":\"iconOnly\",\"selectedIconSetting\":\"userAvatar\",\"includeCompanyName\":false,\"selectedTextOrientationSetting\":\"right\"}"
            },
            "componentName" : "forceCommunity:customizableUserProfileMenu",
            "id" : "4b06712e-6ee3-4ed4-9757-403f28886e42",
            "renditionMap" : { },
            "type" : "component"
          } ],
          "id" : "f275beca-908b-417e-b2c4-c58001585105",
          "regionName" : "themeHeaderProfileMenu",
          "type" : "region"
        }, {
          "components" : [ {
            "componentAttributes" : {
              "backgroundColor" : "rgb(255, 255, 255)",
              "borderColor" : "rgba(0, 0, 0, 0.8)",
              "borderRadius" : 4,
              "borderStyle" : "bottomborder",
              "buttonColor" : "",
              "buttonHoverColor" : "",
              "crossObjectTypeaheadApiNames" : "",
              "iconColor" : "rgba(0, 0, 0, 0.8)",
              "placeholderText" : "Search...",
              "placeholderTextColor" : "rgba(0, 0, 0, 0.6)",
              "showSearchButton" : false,
              "textColor" : "rgba(0, 0, 0, 0.8)",
              "typeaheadResultMax" : 5,
              "useTypeahead" : true
            },
            "componentName" : "forceCommunity:themeSearch",
            "id" : "47638321-b6b4-4e7c-9ada-302488562c5f",
            "renditionMap" : { },
            "type" : "component"
          } ],
          "id" : "5adf5c05-e759-479e-b927-3c98a9052d20",
          "regionName" : "search",
          "type" : "region"
        }, {
          "components" : [ {
            "componentAttributes" : {
              "navAlignment" : "left",
              "navItemThreshold" : 4,
              "navigationMenuEditorRefresh" : ""
            },
            "componentName" : "forceCommunity:themeNav",
            "id" : "601d2e3e-fcf7-4c3f-a3a0-9152ba964143",
            "renditionMap" : { },
            "type" : "component"
          } ],
          "id" : "a3ee1eb7-8b77-4b1d-9f74-bdcecf1d5dc4",
          "regionName" : "nav",
          "type" : "region"
        }, {
          "id" : "13a00b2e-c583-4989-8199-df25189dd573",
          "regionName" : "cartIcon",
          "type" : "region"
        } ],
        "renditionMap" : { },
        "type" : "component"
      } ],
      "id" : "87a12af3-c24d-4211-8fc7-c446c5ce016a",
      "regionName" : "themeHeader",
      "type" : "region"
    }, {
      "components" : [ {
        "componentAttributes" : {
          "bgImage" : "background: rgb(0,0,0) url(/sfsites/assets/themes/cypress-background.jpg) top center /cover",
          "bgOverlayColor" : "rgba(0, 0, 0, 0.35)",
          "captionText" : "Limited time offer",
          "captionTextColor" : "rgb(255, 255, 255)",
          "captionTextShadowColor" : "rgba(0, 0, 0, 0.5)",
          "contentAlignment" : "center",
          "contentWidth" : 60,
          "ctaBtnOneBgColor" : "",
          "ctaBtnOneBgHoverColor" : "",
          "ctaBtnOneBorderColor" : "rgba(0, 0, 0, 0)",
          "ctaBtnOneOpenNewTab" : false,
          "ctaBtnOneText" : "Learn More",
          "ctaBtnOneTextColor" : "",
          "ctaBtnOneTextHoverColor" : "",
          "ctaBtnOneUrl" : "",
          "ctaBtnRadius" : 4,
          "ctaBtnTwoBgColor" : "rgba(255, 255, 255, 0)",
          "ctaBtnTwoBgHoverColor" : "rgb(255, 255, 255)",
          "ctaBtnTwoBorderColor" : "rgb(255, 255, 255)",
          "ctaBtnTwoOpenNewTab" : false,
          "ctaBtnTwoText" : "Secondary",
          "ctaBtnTwoTextColor" : "rgb(255, 255, 255)",
          "ctaBtnTwoTextHoverColor" : "rgba(0, 0, 0, 0.8)",
          "ctaBtnTwoUrl" : "",
          "ctaShowBtnOne" : true,
          "ctaShowBtnTwo" : false,
          "fixedHeroWidth" : true,
          "heroHeight" : 140,
          "heroWidth" : 1440,
          "showCaption" : true,
          "showSubtitle" : false,
          "showTitle" : true,
          "subtitleText" : "Subtitle Content",
          "subtitleTextColor" : "rgb(255, 255, 255)",
          "subtitleTextShadowColor" : "rgba(0, 0, 0, 0.5)",
          "titleText" : "Collect bonus rewards.",
          "titleTextColor" : "rgb(255, 255, 255)",
          "titleTextShadowColor" : "rgba(0, 0, 0, 0.5)",
          "type" : "callToAction"
        },
        "componentName" : "forceCommunity:themeHeroStarter",
        "id" : "7da380c5-9a59-4f04-a730-163f214075cc",
        "regions" : [ {
          "components" : [ {
            "componentAttributes" : {
              "backgroundColor" : "rgb(255, 255, 255)",
              "borderColor" : "rgba(0, 0, 0, 0.5)",
              "borderRadius" : 4,
              "borderStyle" : "outline",
              "buttonColor" : "",
              "buttonHoverColor" : "",
              "crossObjectTypeaheadApiNames" : "",
              "iconColor" : "rgb(255, 255, 255)",
              "placeholderText" : "Ask a question...",
              "placeholderTextColor" : "rgba(0, 0, 0, 0.6)",
              "publicDropdownBackgroundColor" : "rgb(255, 255, 255)",
              "publicDropdownBackgroundHoverColor" : "",
              "publicDropdownBorderColor" : "rgb(240, 240, 240)",
              "publicDropdownTextColor" : "",
              "publicDropdownTextHoverColor" : "",
              "showSearchButton" : true,
              "textColor" : "rgba(0, 0, 0, 0.8)",
              "typeaheadResultMax" : 6,
              "useTypeahead" : true
            },
            "componentName" : "forceCommunity:themeSearchHero",
            "id" : "4ba3e29c-679d-41dd-8abf-0136f8e1591b",
            "renditionMap" : { },
            "type" : "component"
          } ],
          "id" : "82315160-6131-4f24-887c-6b273efd1a1b",
          "regionName" : "search",
          "type" : "region"
        } ],
        "renditionMap" : { },
        "type" : "component"
      } ],
      "id" : "1b6beff8-cf25-4fae-bd43-30de171c385c",
      "regionName" : "themeHero",
      "type" : "region"
    }, {
      "id" : "31d284fa-74f4-4c85-885c-bed3b83e85c5",
      "regionName" : "themeFooter",
      "type" : "region"
    } ],
    "type" : "view"
  }, {
    "componentAttributes" : { },
    "componentName" : "c:CloudwerxTheme",
    "id" : "9de15ea6-2f01-459c-9019-7776bbaf5fbf",
    "label" : "CustomTheme",
    "regions" : [ {
      "components" : [ {
        "componentAttributes" : {
          "background" : "background: rgb(255,255,255)",
          "backgroundOverlayColor" : "rgba(0, 0, 0, 0.3)",
          "borderBottomColor" : "rgba(33, 33, 33, 0.15)",
          "centerAlignLogo" : false,
          "collapseNavMenu" : true,
          "containHeader" : true,
          "containHeaderWidth" : 1920,
          "dropdownBackgroundColor" : "rgb(255, 255, 255)",
          "dropdownBackgroundHoverColor" : "",
          "dropdownBorderColor" : "rgb(240, 240, 240)",
          "dropdownTextColor" : "",
          "dropdownTextHoverColor" : "",
          "headerHeight" : 5,
          "linkActiveBorderColor" : "",
          "linkColor" : "rgba(0, 0, 0, 0.8)",
          "linkHoverColor" : "rgba(0, 0, 0, 0.7)",
          "linkTextShadowColor" : "rgba(255, 255, 255, 0)",
          "logoWidth" : 190,
          "searchStyle" : "collapsed",
          "showAppLauncher" : false,
          "showNavMenuOnLeft" : true,
          "showNotifications" : true,
          "showProfileMenu" : true,
          "showSearch" : true
        },
        "componentName" : "forceCommunity:themeHeaderCompact",
        "id" : "f62483a6-62f4-4a07-b716-78a752aa656d",
        "regions" : [ {
          "components" : [ {
            "componentAttributes" : {
              "buttonBackgroundColor" : "",
              "buttonBackgroundHoverColor" : "",
              "buttonBorderColor" : "rgba(0, 0, 0, 0)",
              "buttonBorderRadius" : 4,
              "buttonText" : "Log in",
              "buttonTextColor" : "",
              "buttonTextHoverColor" : "",
              "customizableUserProfileMenuEditor" : "Default_User_Profile_Menu1",
              "menuStyleSettings" : "{\"selectedMenuStyleSetting\":\"iconOnly\",\"selectedIconSetting\":\"userAvatar\",\"includeCompanyName\":false,\"selectedTextOrientationSetting\":\"right\"}"
            },
            "componentName" : "forceCommunity:customizableUserProfileMenu",
            "id" : "5f6e5bc7-31c8-4d8d-ad7c-1af856c3df1b",
            "renditionMap" : { },
            "type" : "component"
          } ],
          "id" : "a66e92b1-d704-4d6e-a349-bd00b78d6cb8",
          "regionName" : "themeHeaderProfileMenu",
          "type" : "region"
        }, {
          "components" : [ {
            "componentAttributes" : {
              "backgroundColor" : "rgb(255, 255, 255)",
              "borderColor" : "rgba(0, 0, 0, 0.8)",
              "borderRadius" : 4,
              "borderStyle" : "bottomborder",
              "buttonColor" : "",
              "buttonHoverColor" : "",
              "crossObjectTypeaheadApiNames" : "",
              "iconColor" : "rgba(0, 0, 0, 0.8)",
              "placeholderText" : "Search...",
              "placeholderTextColor" : "rgba(0, 0, 0, 0.6)",
              "showSearchButton" : false,
              "textColor" : "rgba(0, 0, 0, 0.8)",
              "typeaheadResultMax" : 5,
              "useTypeahead" : true
            },
            "componentName" : "forceCommunity:themeSearch",
            "id" : "7b1789f1-fe55-4390-9b64-7f4f8a41aaa5",
            "renditionMap" : { },
            "type" : "component"
          } ],
          "id" : "479f3986-a918-45c3-9e13-6f8095cbd8f8",
          "regionName" : "search",
          "type" : "region"
        }, {
          "components" : [ {
            "componentAttributes" : {
              "navAlignment" : "left",
              "navItemThreshold" : 4,
              "navigationMenuEditorRefresh" : ""
            },
            "componentName" : "forceCommunity:themeNav",
            "id" : "24e54745-9dd9-4528-bb71-226d94e2adc2",
            "renditionMap" : { },
            "type" : "component"
          } ],
          "id" : "9611e46c-627b-4b13-b83d-e6dfc49c48f0",
          "regionName" : "nav",
          "type" : "region"
        }, {
          "id" : "8cbe0761-0546-4095-aabe-ce80eff82527",
          "regionName" : "cartIcon",
          "type" : "region"
        } ],
        "renditionMap" : { },
        "type" : "component"
      } ],
      "id" : "23b2b328-f4f1-4909-80b2-4dca1226eb11",
      "regionName" : "themeHeader",
      "type" : "region"
    }, {
      "components" : [ {
        "componentAttributes" : {
          "bgImage" : "background: rgb(0,0,0) url(/sfsites/assets/themes/cypress-background.jpg) top center /cover",
          "bgOverlayColor" : "rgba(0, 0, 0, 0.35)",
          "captionText" : "Limited time offer",
          "captionTextColor" : "rgb(255, 255, 255)",
          "captionTextShadowColor" : "rgba(0, 0, 0, 0.5)",
          "contentAlignment" : "center",
          "contentWidth" : 60,
          "ctaBtnOneBgColor" : "",
          "ctaBtnOneBgHoverColor" : "",
          "ctaBtnOneBorderColor" : "rgba(0, 0, 0, 0)",
          "ctaBtnOneOpenNewTab" : false,
          "ctaBtnOneText" : "Learn More",
          "ctaBtnOneTextColor" : "",
          "ctaBtnOneTextHoverColor" : "",
          "ctaBtnOneUrl" : "",
          "ctaBtnRadius" : 4,
          "ctaBtnTwoBgColor" : "rgba(255, 255, 255, 0)",
          "ctaBtnTwoBgHoverColor" : "rgb(255, 255, 255)",
          "ctaBtnTwoBorderColor" : "rgb(255, 255, 255)",
          "ctaBtnTwoOpenNewTab" : false,
          "ctaBtnTwoText" : "Secondary",
          "ctaBtnTwoTextColor" : "rgb(255, 255, 255)",
          "ctaBtnTwoTextHoverColor" : "rgba(0, 0, 0, 0.8)",
          "ctaBtnTwoUrl" : "",
          "ctaShowBtnOne" : true,
          "ctaShowBtnTwo" : false,
          "fixedHeroWidth" : true,
          "heroHeight" : 140,
          "heroWidth" : 1440,
          "showCaption" : true,
          "showSubtitle" : false,
          "showTitle" : true,
          "subtitleText" : "Subtitle Content",
          "subtitleTextColor" : "rgb(255, 255, 255)",
          "subtitleTextShadowColor" : "rgba(0, 0, 0, 0.5)",
          "titleText" : "Collect bonus rewards.",
          "titleTextColor" : "rgb(255, 255, 255)",
          "titleTextShadowColor" : "rgba(0, 0, 0, 0.5)",
          "type" : "callToAction"
        },
        "componentName" : "forceCommunity:themeHeroStarter",
        "id" : "1d357951-4719-441c-b155-5fca1b607730",
        "regions" : [ {
          "components" : [ {
            "componentAttributes" : {
              "backgroundColor" : "rgb(255, 255, 255)",
              "borderColor" : "rgba(0, 0, 0, 0.5)",
              "borderRadius" : 4,
              "borderStyle" : "outline",
              "buttonColor" : "",
              "buttonHoverColor" : "",
              "crossObjectTypeaheadApiNames" : "",
              "iconColor" : "rgb(255, 255, 255)",
              "placeholderText" : "Ask a question...",
              "placeholderTextColor" : "rgba(0, 0, 0, 0.6)",
              "publicDropdownBackgroundColor" : "rgb(255, 255, 255)",
              "publicDropdownBackgroundHoverColor" : "",
              "publicDropdownBorderColor" : "rgb(240, 240, 240)",
              "publicDropdownTextColor" : "",
              "publicDropdownTextHoverColor" : "",
              "showSearchButton" : true,
              "textColor" : "rgba(0, 0, 0, 0.8)",
              "typeaheadResultMax" : 6,
              "useTypeahead" : true
            },
            "componentName" : "forceCommunity:themeSearchHero",
            "id" : "36ddd86a-2bcf-429e-8bae-0edec5b58319",
            "renditionMap" : { },
            "type" : "component"
          } ],
          "id" : "68d90e31-6a65-4248-a711-f6033d8d548f",
          "regionName" : "search",
          "type" : "region"
        } ],
        "renditionMap" : { },
        "type" : "component"
      } ],
      "id" : "b356d791-814e-45ee-83cc-b18fad54548b",
      "regionName" : "themeHero",
      "type" : "region"
    }, {
      "id" : "f86b705c-a126-4fed-85f5-3c18c375032a",
      "regionName" : "themeFooter",
      "type" : "region"
    }, {
      "id" : "1a11a9cc-d985-4ab3-9497-d49a187f4c51",
      "regionName" : "search",
      "type" : "region"
    }, {
      "id" : "2b405bfa-8ed9-4ec4-af39-d76fd3cb91eb",
      "regionName" : "profileMenu",
      "type" : "region"
    }, {
      "id" : "63e02fb5-7b5c-414a-a148-0d8d1450d670",
      "regionName" : "navBar",
      "type" : "region"
    }, {
      "id" : "e8b33c59-a6be-4760-be26-968c1c1060ee",
      "regionName" : "newHeader",
      "type" : "region"
    }, {
      "id" : "4c47213e-62bd-4b84-9aa7-00b16eefbe6b",
      "regionName" : "header",
      "type" : "region"
    }, {
      "id" : "e59ed784-5ab4-4d46-a527-f999b4b5940f",
      "regionName" : "footer",
      "type" : "region"
    } ],
    "type" : "view"
  }, {
    "componentAttributes" : {
      "fixedPageWidth" : 1170,
      "headerBgColor" : "rgba(0, 0, 0, 0)",
      "isHeaderPinned" : false,
      "isHeroUnderHeader" : false,
      "isPageWidthFixed" : true,
      "showHeader" : true,
      "showHero" : true
    },
    "componentName" : "siteforce:themeLayoutStarter",
    "id" : "cddb31bb-bc49-4385-ba17-5657218beb76",
    "label" : "ServiceNotAvailable",
    "regions" : [ {
      "id" : "ee711ca9-1f36-4ca2-be56-cbf19e9656b7",
      "regionName" : "themeHeader",
      "type" : "region"
    }, {
      "id" : "b2c751f2-8f7e-4058-9e26-14212426f368",
      "regionName" : "themeFooter",
      "type" : "region"
    } ],
    "type" : "view"
  } ]
}