{
  "id" : "cd56b3fb-76c1-4c55-98b8-62296ef59f19",
  "nativeMobileNavConfig" : {
    "showBackButton" : true,
    "showHamburgerMenuWithBackButton" : false
  },
  "nativeTabMenu" : {
    "branding" : {
      "iconTintColorUnselected" : "#C9C5C5",
      "barTintColor" : "#FFFFFF"
    },
    "menuItems" : [ ]
  },
  "showHamburgerMenu" : true,
  "type" : "nativeConfig"
}