{
  "activeViewId" : "fa48b038-a0e6-48ae-9480-af824206a06a",
  "appPageId" : "26f3a209-dc55-4264-ad2b-8c6fd9290193",
  "configurationTags" : [ ],
  "id" : "7f55bbc4-e9e4-415b-9934-c46bc6e707db",
  "label" : "Case Related List",
  "routeType" : "relatedlist-500",
  "type" : "route",
  "urlPrefix" : "case"
}