{
  "activeViewId" : "c3c0e401-e95a-4e01-8021-e7ef5cff0860",
  "appPageId" : "ae493539-fa4b-4673-bcca-9e6220f1b025",
  "configurationTags" : [ ],
  "id" : "3481177f-6511-49cf-bf06-54c6b5c33515",
  "label" : "Check Password",
  "routeType" : "check-password",
  "type" : "route",
  "urlPrefix" : "CheckPasswordResetEmail"
}