{
  "activeViewId" : "d71faff7-bcf9-4ead-ac80-270deaa51cb7",
  "appPageId" : "26f3a209-dc55-4264-ad2b-8c6fd9290193",
  "configurationTags" : [ ],
  "id" : "f25ecb2a-f431-4e78-963d-ed7421832b11",
  "label" : "Contact Support",
  "pageAccess" : "UseParent",
  "routeType" : "contactsupport",
  "type" : "route",
  "urlPrefix" : "contactsupport"
}