{
  "activeViewId" : "6fb15ec1-f531-4d41-b59b-875f33cd7178",
  "appPageId" : "26f3a209-dc55-4264-ad2b-8c6fd9290193",
  "configurationTags" : [ ],
  "id" : "9fa48424-2094-4425-a979-5110b0d2047e",
  "label" : "Error",
  "pageAccess" : "UseParent",
  "routeType" : "error",
  "type" : "route",
  "urlPrefix" : "error"
}