{
  "activeViewId" : "e273d2e9-184a-4488-9446-4c2372f93a6f",
  "appPageId" : "26f3a209-dc55-4264-ad2b-8c6fd9290193",
  "configurationTags" : [ ],
  "id" : "f15e0654-7837-4b8a-b53d-9cbfe58bd16a",
  "label" : "Related Record List",
  "pageAccess" : "UseParent",
  "routeType" : "relatedlist",
  "type" : "route",
  "urlPrefix" : "relatedlist"
}