{
  "activeViewId" : "c59f22b3-8dd3-4b7e-b77f-e6e125dfefa7",
  "appPageId" : "26f3a209-dc55-4264-ad2b-8c6fd9290193",
  "configurationTags" : [ ],
  "id" : "33f0dc84-7e49-44b5-9f39-3d2c50236d5b",
  "label" : "Report List",
  "routeType" : "list-00O",
  "type" : "route",
  "urlPrefix" : "report"
}