{
  "activeViewId" : "fcffa6f5-1f50-45df-8169-61b60eb29a9b",
  "appPageId" : "26f3a209-dc55-4264-ad2b-8c6fd9290193",
  "configurationTags" : [ ],
  "id" : "3852f7a7-4716-4ff4-a630-ac026782b56d",
  "label" : "User List",
  "routeType" : "list-005",
  "type" : "route",
  "urlPrefix" : "profile"
}