{
  "activeViewId" : "865716e5-0790-424e-a8b4-08e32c0caf38",
  "appPageId" : "26f3a209-dc55-4264-ad2b-8c6fd9290193",
  "configurationTags" : [ ],
  "id" : "2d151b54-5d15-494f-80c6-c8ba0ef37b0a",
  "label" : "User Related List",
  "routeType" : "relatedlist-005",
  "type" : "route",
  "urlPrefix" : "profile"
}